[{
    "key": "upload",
    "value": "Upload",
    "paid": false,
    "type": [1, 2],
    "roles": [1]
}, {
    "key": "delete",
    "value": "Delete",
    "paid": false,
    "type": [1, 2],
    "roles": [1]
}, {
    "key": "edit_details",
    "value": "Edit Details",
    "paid": false,
    "type": [1, 2],
    "roles": [1]
}, {
    "key": "feature_image",
    "value": "Set Feature Image",
    "paid": false,
    "type": [1, 2],
    "roles": [1]
}, {
    "key": "feature_logo",
    "value": "Set Feature Logo",
    "paid": false,
    "type": [1, 2],
    "roles": [1]
}, {
    "key": "download",
    "value": "Download",
    "paid": true,
    "type": [1, 2],
    "roles": [1]
}, {
    "key": "create_albums",
    "value": "Create Albums",
    "paid": false,
    "type": [1, 2],
    "roles": [1]
}, {
    "key": "add_image_album",
    "value": "Add Images to Albums",
    "paid": false,
    "type": [1, 2],
    "roles": [1]
}, {
    "key": "remove_image_albums",
    "value": "Remove Images from Albums",
    "paid": false,
    "type": [1, 2],
    "roles": [1]
}, {
    "key": "delete_albums",
    "value": "Delete Albums",
    "paid": false,
    "type": [1, 2],
    "roles": [1]
}, {
    "key": "create_collections",
    "value": "Create Collections",
    "paid": false,
    "type": [2],
    "roles": [1]
}, {
    "key": "add_media_collections",
    "value": "Add media to collections",
    "paid": false,
    "type": [2],
    "roles": [1]
}, {
    "key": "remove_media_collections",
    "value": "Remove media from collections",
    "paid": false,
    "type": [2],
    "roles": [1]
}, {
    "key": "delete_collections",
    "value": "Delete collections",
    "paid": false,
    "type": [1, 2],
    "roles": [1]
}, {
    "key": "create_channels",
    "value": "Create Channels",
    "paid": false,
    "type": [2],
    "roles": [1]
}, {
    "key": "add_videos_channels",
    "value": "Add videos to channels",
    "paid": false,
    "type": [2],
    "roles": [1]
}, {
    "key": "remove_videos_channels",
    "value": "Remove videos from channels",
    "paid": false,
    "type": [2],
    "roles": [1]
}, {
    "key": "delete_channels",
    "value": "Delete Channels",
    "paid": false,
    "type": [2],
    "roles": [1]
}]